Verilog/09_P4/4096IM/CPU_Vscode_IMDMLargeScale/reference.vcd
$date
	Tue Nov  7 05:42:08 2023
$end
$version
	Icarus Verilog
$end
$timescale
	1s
$end
$scope module tb $end
$var reg 1 ! clk $end
$var reg 1 " reset $end
$scope module myMips $end
$var wire 1 ! clk $end
$var wire 1 " reset $end
$scope module myMipsDatapath $end
$var wire 32 # ALUInput_A [31:0] $end
$var wire 3 $ ALUInput_ALUOp [2:0] $end
$var wire 32 % ControllerInput_ins [31:0] $end
$var wire 32 & DMInput_A [31:0] $end
$var wire 32 ' DMInput_PC [31:0] $end
$var wire 32 ( DMInput_WD [31:0] $end
$var wire 1 ) DMInput_WE $end
$var wire 16 * EXTInput_imm [15:0] $end
$var wire 1 + EXTInput_zeroOrSigned $end
$var wire 5 , GRFInput_A1 [4:0] $end
$var wire 5 - GRFInput_A2 [4:0] $end
$var wire 32 . GRFInput_PC [31:0] $end
$var wire 1 / GRFInput_WE $end
$var wire 32 0 IMInput_PC [31:0] $end
$var wire 32 1 NPCInput_PC [31:0] $end
$var wire 16 2 NPCInput_imm [15:0] $end
$var wire 26 3 NPCInput_ins_index [25:0] $end
$var wire 1 4 NPCInput_isBranch $end
$var wire 1 5 NPCInput_isBranchSuccess $end
$var wire 1 6 NPCInput_isJal $end
$var wire 1 7 NPCInput_isJr $end
$var wire 32 8 NPCInput_rs [31:0] $end
$var wire 32 9 PCInput_NPC [31:0] $end
$var wire 1 ! clk $end
$var wire 1 " reset $end
$var wire 5 : shamt [4:0] $end
$var wire 6 ; op [5:0] $end
$var wire 26 < ins_index [25:0] $end
$var wire 16 = imm [15:0] $end
$var wire 6 > func [5:0] $end
$var wire 5 ? Rt [4:0] $end
$var wire 5 @ Rs [4:0] $end
$var wire 5 A Rd [4:0] $end
$var wire 32 B PCOutput_PC [31:0] $end
$var wire 32 C NPCOutput_PC4 [31:0] $end
$var wire 32 D NPCOutput_NPC [31:0] $end
$var wire 32 E IMOutput_Ins [31:0] $end
$var wire 32 F GRFOutput_RD2 [31:0] $end
$var wire 32 G GRFOutput_RD1 [31:0] $end
$var wire 32 H GRFInput_WD [31:0] $end
$var wire 5 I GRFInput_A3 [4:0] $end
$var wire 32 J EXTOutput_immHasExted [31:0] $end
$var wire 32 K DMOutput_RD [31:0] $end
$var wire 1 L ControllerOutput_isJr_08 $end
$var wire 1 M ControllerOutput_isJal_10 $end
$var wire 1 N ControllerOutput_isBranch_09 $end
$var wire 1 O ControllerOutput_GRF_WE_02 $end
$var wire 2 P ControllerOutput_GRF_WD_03 [1:0] $end
$var wire 1 Q ControllerOutput_DM_WE_07 $end
$var wire 1 R ControllerOutput_ALU_immExt_05 $end
$var wire 3 S ControllerOutput_ALU_Op_06 [2:0] $end
$var wire 1 T ControllerOutput_ALU_B_04 $end
$var wire 2 U ControllerOutput_A3_RdRtRa_01 [1:0] $end
$var wire 1 V ALUOutput_isEqual $end
$var wire 32 W ALUOutput_C [31:0] $end
$var wire 32 X ALUInput_B [31:0] $end
$scope module myALU $end
$var wire 32 Y A [31:0] $end
$var wire 3 Z ALUOp [2:0] $end
$var wire 32 [ B [31:0] $end
$var wire 1 V isEqual $end
$var wire 32 \ C [31:0] $end
$upscope $end
$scope module myController $end
$var wire 1 ] add $end
$var wire 32 ^ ins [31:0] $end
$var wire 1 _ jr $end
$var wire 1 ` sub $end
$var wire 1 a sw $end
$var wire 1 b ori $end
$var wire 6 c op [5:0] $end
$var wire 1 d nop $end
$var wire 1 e lw $end
$var wire 1 f lui $end
$var wire 1 g jal $end
$var wire 1 L isJr_08 $end
$var wire 1 M isJal_10 $end
$var wire 1 N isBranch_09 $end
$var wire 6 h func [5:0] $end
$var wire 1 i beq $end
$var wire 1 j R $end
$var wire 1 O GRF_WE_02 $end
$var wire 2 k GRF_WD_03 [1:0] $end
$var wire 1 Q DM_WE_07 $end
$var wire 1 R ALU_immExt_05 $end
$var wire 3 l ALU_Op_06 [2:0] $end
$var wire 1 T ALU_B_04 $end
$var wire 2 m A3_RdRtRa_01 [1:0] $end
$upscope $end
$scope module myDM $end
$var wire 32 n A [31:0] $end
$var wire 32 o PC [31:0] $end
$var wire 32 p RD [31:0] $end
$var wire 32 q WD [31:0] $end
$var wire 1 ) WE $end
$var wire 1 ! clk $end
$var wire 1 " reset $end
$var integer 32 r i [31:0] $end
$upscope $end
$scope module myEXT $end
$var wire 16 s imm [15:0] $end
$var wire 1 + zeroOrSigned $end
$var wire 32 t immHasExted [31:0] $end
$upscope $end
$scope module myGRF $end
$var wire 5 u A1 [4:0] $end
$var wire 5 v A2 [4:0] $end
$var wire 5 w A3 [4:0] $end
$var wire 32 x PC [31:0] $end
$var wire 32 y RD1 [31:0] $end
$var wire 32 z RD2 [31:0] $end
$var wire 32 { WD [31:0] $end
$var wire 1 / WE $end
$var wire 1 ! clk $end
$var wire 1 " reset $end
$var integer 32 | i [31:0] $end
$upscope $end
$scope module myIM $end
$var wire 32 } Ins [31:0] $end
$var wire 32 ~ PC [31:0] $end
$upscope $end
$scope module myNPC $end
$var wire 32 !" PC [31:0] $end
$var wire 16 "" imm [15:0] $end
$var wire 26 #" ins_index [25:0] $end
$var wire 1 4 isBranch $end
$var wire 1 5 isBranchSuccess $end
$var wire 1 6 isJal $end
$var wire 1 7 isJr $end
$var wire 32 $" rs [31:0] $end
$var wire 1 %" tempBranch $end
$var wire 32 &" PC4 [31:0] $end
$var wire 32 '" NPC [31:0] $end
$upscope $end
$scope module myPC $end
$var wire 32 (" NPC [31:0] $end
$var wire 1 ! clk $end
$var wire 1 " reset $end
$var reg 32 )" PC [31:0] $end
$upscope $end
$upscope $end
$upscope $end
$upscope $end
$enddefinitions $end
#0
$dumpvars
b11000000000000 )"
b11000000000100 ("
b11000000000100 '"
b11000000000100 &"
0%"
b0 $"
b10000000000000001 #"
b1 ""
b11000000000000 !"
b11000000000000 ~
b110100000000010000000000000001 }
b100000 |
b1 {
b0 z
b0 y
b11000000000000 x
b1 w
b1 v
b0 u
b1 t
b1 s
b10000000000 r
b0 q
b0 p
b11000000000000 o
b1 n
b1 m
b11 l
b0 k
0j
0i
b1 h
0g
0f
0e
0d
b1101 c
1b
0a
0`
0_
b110100000000010000000000000001 ^
0]
b1 \
b1 [
b11 Z
b0 Y
b1 X
b1 W
0V
b1 U
1T
b11 S
0R
0Q
b0 P
1O
0N
0M
0L
b0 K
b1 J
b1 I
b1 H
b0 G
b0 F
b110100000000010000000000000001 E
b11000000000100 D
b11000000000100 C
b11000000000000 B
b0 A
b0 @
b1 ?
b1 >
b1 =
b10000000000000001 <
b1101 ;
b0 :
b11000000000100 9
b0 8
07
06
05
04
b10000000000000001 3
b1 2
b11000000000000 1
b11000000000000 0
1/
b11000000000000 .
b1 -
b0 ,
0+
b1 *
0)
b0 (
b11000000000000 '
b1 &
b110100000000010000000000000001 %
b11 $
b0 #
0"
0!
$end
#1
1/
1O
b1 H
b1 {
0T
b1 &
b1 n
b1 W
b1 \
b10 I
b10 w
b1 X
b1 [
b0 $
b0 Z
b0 S
b0 l
b0 U
b0 m
b1000000100000 J
b1000000100000 t
1]
b11000000001000 9
b11000000001000 ("
b11000000001000 D
b11000000001000 '"
b10000010001000000100000 3
b10000010001000000100000 #"
b10000010001000000100000 <
b1000000100000 *
b1000000100000 s
b1000000100000 2
b1000000100000 ""
b1000000100000 =
b100000 >
b10 A
b10 ,
b10 u
b10 @
b0 ;
1j
0b
b0 c
b100000 h
b10000010001000000100000 %
b10000010001000000100000 ^
b10000010001000000100000 E
b10000010001000000100000 }
b11000000000100 '
b11000000000100 o
b11000000000100 .
b11000000000100 x
b11000000000100 0
b11000000000100 ~
b11000000001000 C
b11000000001000 &"
b11000000000100 1
b11000000000100 !"
b11000000000100 B
b11000000000100 )"
b1 (
b1 q
b1 F
b1 z
1!
#2
0!
#3
0/
0O
1%"
14
1N
b1111111111111110 J
b1111111111111110 t
b11111 I
b11111 w
0]
b11000000000100 9
b11000000000100 ("
b11000000000100 D
b11000000000100 '"
b10 H
b10 {
15
1V
b10000011111111111111110 3
b10000011111111111111110 #"
b10000011111111111111110 <
b1111111111111110 *
b1111111111111110 s
b1111111111111110 2
b1111111111111110 ""
b1111111111111110 =
b111110 >
b11111 :
b11111 A
b100 ;
0j
1i
b100 c
b111110 h
b10 &
b10 n
b10 W
b10 \
b10000010000011111111111111110 %
b10000010000011111111111111110 ^
b10000010000011111111111111110 E
b10000010000011111111111111110 }
b1 #
b1 Y
b1 8
b1 $"
b1 G
b1 y
b11000000001000 '
b11000000001000 o
b11000000001000 .
b11000000001000 x
b11000000001000 0
b11000000001000 ~
b11000000001100 C
b11000000001100 &"
b11000000001000 1
b11000000001000 !"
b11000000001000 B
b11000000001000 )"
1!
#4
0!
#5
1/
1O
0%"
04
0N
b1000000100000 J
b1000000100000 t
b10 I
b10 w
1]
b10000010001000000100000 3
b10000010001000000100000 #"
b10000010001000000100000 <
b1000000100000 *
b1000000100000 s
b1000000100000 2
b1000000100000 ""
b1000000100000 =
b100000 >
b0 :
b10 A
b0 ;
1j
0i
b0 c
b100000 h
b11000000001000 9
b11000000001000 ("
b11000000001000 D
b11000000001000 '"
b10000010001000000100000 %
b10000010001000000100000 ^
b10000010001000000100000 E
b10000010001000000100000 }
b11000000000100 '
b11000000000100 o
b11000000000100 .
b11000000000100 x
b11000000000100 0
b11000000000100 ~
b11000000001000 C
b11000000001000 &"
b11000000000100 1
b11000000000100 !"
b11000000000100 B
b11000000000100 )"
1!
#6
0!
#7
0/
0O
14
1N
b1111111111111110 J
b1111111111111110 t
b11111 I
b11111 w
0]
b11000000001100 9
b11000000001100 ("
b11000000001100 D
b11000000001100 '"
b11 H
b11 {
05
0V
b10000011111111111111110 3
b10000011111111111111110 #"
b10000011111111111111110 <
b1111111111111110 *
b1111111111111110 s
b1111111111111110 2
b1111111111111110 ""
b1111111111111110 =
b111110 >
b11111 :
b11111 A
b100 ;
0j
1i
b100 c
b111110 h
b11 &
b11 n
b11 W
b11 \
b10000010000011111111111111110 %
b10000010000011111111111111110 ^
b10000010000011111111111111110 E
b10000010000011111111111111110 }
b10 #
b10 Y
b10 8
b10 $"
b10 G
b10 y
b11000000001000 '
b11000000001000 o
b11000000001000 .
b11000000001000 x
b11000000001000 0
b11000000001000 ~
b11000000001100 C
b11000000001100 &"
b11000000001000 1
b11000000001000 !"
b11000000001000 B
b11000000001000 )"
1!
#8
0!
#9
1/
1O
b1 H
b1 {
04
0N
b1100000100000 J
b1100000100000 t
b11 I
b11 w
b1 &
b1 n
b1 W
b1 \
1]
b11000000010000 9
b11000000010000 ("
b11000000010000 D
b11000000010000 '"
b11000010001100000100000 3
b11000010001100000100000 #"
b11000010001100000100000 <
b1100000100000 *
b1100000100000 s
b1100000100000 2
b1100000100000 ""
b1100000100000 =
b100000 >
b0 :
b11 A
b0 #
b0 Y
b0 8
b0 $"
b0 G
b0 y
b11 ,
b11 u
b11 @
b0 ;
1j
0i
b0 c
b100000 h
b11000010001100000100000 %
b11000010001100000100000 ^
b11000010001100000100000 E
b11000010001100000100000 }
b11000000001100 '
b11000000001100 o
b11000000001100 .
b11000000001100 x
b11000000001100 0
b11000000001100 ~
b11000000010000 C
b11000000010000 &"
b11000000001100 1
b11000000001100 !"
b11000000001100 B
b11000000001100 )"
1!
#10
0!
#11
0/
0O
0%"
14
1N
b1 J
b1 t
b0 I
b0 w
b10 X
b10 [
0]
b11000000010100 9
b11000000010100 ("
b11000000010100 D
b11000000010100 '"
b11 H
b11 {
05
0V
b11000100000000000000001 3
b11000100000000000000001 #"
b11000100000000000000001 <
b1 *
b1 s
b1 2
b1 ""
b1 =
b1 >
b0 A
b10 (
b10 q
b10 F
b10 z
b10 -
b10 v
b10 ?
b100 ;
0j
1i
b100 c
b1 h
b11 &
b11 n
b11 W
b11 \
b10000011000100000000000000001 %
b10000011000100000000000000001 ^
b10000011000100000000000000001 E
b10000011000100000000000000001 }
b1 #
b1 Y
b1 8
b1 $"
b1 G
b1 y
b11000000010000 '
b11000000010000 o
b11000000010000 .
b11000000010000 x
b11000000010000 0
b11000000010000 ~
b11000000010100 C
b11000000010100 &"
b11000000010000 1
b11000000010000 !"
b11000000010000 B
b11000000010000 )"
1!
#12
0!
#13
15
1V
b10 U
b10 m
b10 P
b10 k
1/
1O
b11000000011000 H
b11000000011000 {
04
0N
16
1M
b110000000011 J
b110000000011 t
b11111 I
b11111 w
b0 X
b0 [
b0 &
b0 n
b0 W
b0 \
b11000000001100 9
b11000000001100 ("
b11000000001100 D
b11000000001100 '"
b110000000011 3
b110000000011 #"
b110000000011 <
b110000000011 *
b110000000011 s
b110000000011 2
b110000000011 ""
b110000000011 =
b11 >
b10000 :
b1 A
b0 (
b0 q
b0 F
b0 z
b0 -
b0 v
b0 ?
b0 #
b0 Y
b0 8
b0 $"
b0 G
b0 y
b0 ,
b0 u
b0 @
b11 ;
0i
1g
b11 c
b11 h
b1100000000000000110000000011 %
b1100000000000000110000000011 ^
b1100000000000000110000000011 E
b1100000000000000110000000011 }
b11000000010100 '
b11000000010100 o
b11000000010100 .
b11000000010100 x
b11000000010100 0
b11000000010100 ~
b11000000011000 C
b11000000011000 &"
b11000000010100 1
b11000000010100 !"
b11000000010100 B
b11000000010100 )"
1!
#14
0!
#15
b11 I
b11 w
b0 P
b0 k
1/
1O
b0 U
b0 m
15
1V
06
0M
b11000000010000 9
b11000000010000 ("
b11000000010000 D
b11000000010000 '"
b1100000100000 J
b1100000100000 t
b1 X
b1 [
b10 &
b10 n
b10 W
b10 \
1]
b10 H
b10 {
b11000010001100000100000 3
b11000010001100000100000 #"
b11000010001100000100000 <
b1100000100000 *
b1100000100000 s
b1100000100000 2
b1100000100000 ""
b1100000100000 =
b100000 >
b0 :
b11 A
b1 (
b1 q
b1 F
b1 z
b1 -
b1 v
b1 ?
b1 #
b1 Y
b1 8
b1 $"
b1 G
b1 y
b11 ,
b11 u
b11 @
b0 ;
1j
0g
b0 c
b100000 h
b11000010001100000100000 %
b11000010001100000100000 ^
b11000010001100000100000 E
b11000010001100000100000 }
b11000000001100 '
b11000000001100 o
b11000000001100 .
b11000000001100 x
b11000000001100 0
b11000000001100 ~
b11000000010000 C
b11000000010000 &"
b11000000001100 1
b11000000001100 !"
b11000000001100 B
b11000000001100 )"
1!
#16
0!
#17
0/
0O
1%"
14
1N
b1 J
b1 t
b0 I
b0 w
b10 X
b10 [
0]
b11000000011000 9
b11000000011000 ("
b11000000011000 D
b11000000011000 '"
b11000100000000000000001 3
b11000100000000000000001 #"
b11000100000000000000001 <
b1 *
b1 s
b1 2
b1 ""
b1 =
b1 >
b0 A
b10 (
b10 q
b10 F
b10 z
b10 -
b10 v
b10 ?
b100 ;
0j
1i
b100 c
b1 h
b100 H
b100 {
15
1V
b10000011000100000000000000001 %
b10000011000100000000000000001 ^
b10000011000100000000000000001 E
b10000011000100000000000000001 }
b100 &
b100 n
b100 W
b100 \
b11000000010000 '
b11000000010000 o
b11000000010000 .
b11000000010000 x
b11000000010000 0
b11000000010000 ~
b11000000010100 C
b11000000010100 &"
b11000000010000 1
b11000000010000 !"
b11000000010000 B
b11000000010000 )"
b10 #
b10 Y
b10 8
b10 $"
b10 G
b10 y
1!
#18
0!
#19
b1000 I
b1000 w
b100 $
b100 Z
b100 S
b100 l
1/
1O
0%"
1T
b1 U
b1 m
b10000000000000000 H
b10000000000000000 {
05
0V
04
0N
b1 X
b1 [
b10000000000000000 &
b10000000000000000 n
b10000000000000000 W
b10000000000000000 \
b10000000000000000001 3
b10000000000000000001 #"
b10000000000000000001 <
b0 (
b0 q
b0 F
b0 z
b1000 -
b1000 v
b1000 ?
b0 #
b0 Y
b0 8
b0 $"
b0 G
b0 y
b0 ,
b0 u
b0 @
b1111 ;
0i
1f
b1111 c
b11000000011100 9
b11000000011100 ("
b11000000011100 D
b11000000011100 '"
b111100000010000000000000000001 %
b111100000010000000000000000001 ^
b111100000010000000000000000001 E
b111100000010000000000000000001 }
b11000000011000 '
b11000000011000 o
b11000000011000 .
b11000000011000 x
b11000000011000 0
b11000000011000 ~
b11000000011100 C
b11000000011100 &"
b11000000011000 1
b11000000011000 !"
b11000000011000 B
b11000000011000 )"
1!
#20
0!
#21
b0 H
b0 {
15
1V
b0 &
b0 n
b0 W
b0 \
b0 $
b0 Z
b0 S
b0 l
0/
0O
b0 X
b0 [
0T
b0 U
b0 m
b0 I
b0 w
b0 J
b0 t
b11000000100000 9
b11000000100000 ("
b11000000100000 D
b11000000100000 '"
b0 3
b0 #"
b0 <
b0 *
b0 s
b0 2
b0 ""
b0 =
b0 >
b0 -
b0 v
b0 ?
b0 ;
1j
0f
b0 c
b0 h
1d
b0 %
b0 ^
b0 E
b0 }
b11000000011100 '
b11000000011100 o
b11000000011100 .
b11000000011100 x
b11000000011100 0
b11000000011100 ~
b11000000100000 C
b11000000100000 &"
b11000000011100 1
b11000000011100 !"
b11000000011100 B
b11000000011100 )"
b0 (
b0 q
b0 F
b0 z
1!
#22
0!
1"
#23
b1 H
b1 {
b1 &
b1 n
b1 W
b1 \
05
0V
b1 X
b1 [
1/
1O
b1 I
b1 w
1T
b1 U
b1 m
b11 $
b11 Z
b11 S
b11 l
b1 J
b1 t
b11000000000100 9
b11000000000100 ("
b11000000000100 D
b11000000000100 '"
b10000000000000001 3
b10000000000000001 #"
b10000000000000001 <
b1 *
b1 s
b1 2
b1 ""
b1 =
b1 >
b1 -
b1 v
b1 ?
b1101 ;
0j
1b
b1101 c
b1 h
0d
b110100000000010000000000000001 %
b110100000000010000000000000001 ^
b110100000000010000000000000001 E
b110100000000010000000000000001 }
b11000000000000 '
b11000000000000 o
b11000000000000 .
b11000000000000 x
b11000000000000 0
b11000000000000 ~
b11000000000100 C
b11000000000100 &"
b11000000000000 1
b11000000000000 !"
b11000000000000 B
b11000000000000 )"
b10000000000 r
b100000 |
1!
#24
0!
0"
#25
1/
1O
b1 H
b1 {
0T
b1 &
b1 n
b1 W
b1 \
b10 I
b10 w
b1 X
b1 [
b0 $
b0 Z
b0 S
b0 l
b0 U
b0 m
b1000000100000 J
b1000000100000 t
1]
b11000000001000 9
b11000000001000 ("
b11000000001000 D
b11000000001000 '"
b10000010001000000100000 3
b10000010001000000100000 #"
b10000010001000000100000 <
b1000000100000 *
b1000000100000 s
b1000000100000 2
b1000000100000 ""
b1000000100000 =
b100000 >
b10 A
b10 ,
b10 u
b10 @
b0 ;
1j
0b
b0 c
b100000 h
b10000010001000000100000 %
b10000010001000000100000 ^
b10000010001000000100000 E
b10000010001000000100000 }
b11000000000100 '
b11000000000100 o
b11000000000100 .
b11000000000100 x
b11000000000100 0
b11000000000100 ~
b11000000001000 C
b11000000001000 &"
b11000000000100 1
b11000000000100 !"
b11000000000100 B
b11000000000100 )"
b1 (
b1 q
b1 F
b1 z
1!
#26
0!
#27
0/
0O
1%"
14
1N
b1111111111111110 J
b1111111111111110 t
b11111 I
b11111 w
0]
b11000000000100 9
b11000000000100 ("
b11000000000100 D
b11000000000100 '"
b10 H
b10 {
15
1V
b10000011111111111111110 3
b10000011111111111111110 #"
b10000011111111111111110 <
b1111111111111110 *
b1111111111111110 s
b1111111111111110 2
b1111111111111110 ""
b1111111111111110 =
b111110 >
b11111 :
b11111 A
b100 ;
0j
1i
b100 c
b111110 h
b10 &
b10 n
b10 W
b10 \
b10000010000011111111111111110 %
b10000010000011111111111111110 ^
b10000010000011111111111111110 E
b10000010000011111111111111110 }
b1 #
b1 Y
b1 8
b1 $"
b1 G
b1 y
b11000000001000 '
b11000000001000 o
b11000000001000 .
b11000000001000 x
b11000000001000 0
b11000000001000 ~
b11000000001100 C
b11000000001100 &"
b11000000001000 1
b11000000001000 !"
b11000000001000 B
b11000000001000 )"
1!
#28
0!
#29
1/
1O
0%"
04
0N
b1000000100000 J
b1000000100000 t
b10 I
b10 w
1]
b10000010001000000100000 3
b10000010001000000100000 #"
b10000010001000000100000 <
b1000000100000 *
b1000000100000 s
b1000000100000 2
b1000000100000 ""
b1000000100000 =
b100000 >
b0 :
b10 A
b0 ;
1j
0i
b0 c
b100000 h
b11000000001000 9
b11000000001000 ("
b11000000001000 D
b11000000001000 '"
b10000010001000000100000 %
b10000010001000000100000 ^
b10000010001000000100000 E
b10000010001000000100000 }
b11000000000100 '
b11000000000100 o
b11000000000100 .
b11000000000100 x
b11000000000100 0
b11000000000100 ~
b11000000001000 C
b11000000001000 &"
b11000000000100 1
b11000000000100 !"
b11000000000100 B
b11000000000100 )"
1!
#30
0!
#31
0/
0O
14
1N
b1111111111111110 J
b1111111111111110 t
b11111 I
b11111 w
0]
b11000000001100 9
b11000000001100 ("
b11000000001100 D
b11000000001100 '"
b11 H
b11 {
05
0V
b10000011111111111111110 3
b10000011111111111111110 #"
b10000011111111111111110 <
b1111111111111110 *
b1111111111111110 s
b1111111111111110 2
b1111111111111110 ""
b1111111111111110 =
b111110 >
b11111 :
b11111 A
b100 ;
0j
1i
b100 c
b111110 h
b11 &
b11 n
b11 W
b11 \
b10000010000011111111111111110 %
b10000010000011111111111111110 ^
b10000010000011111111111111110 E
b10000010000011111111111111110 }
b10 #
b10 Y
b10 8
b10 $"
b10 G
b10 y
b11000000001000 '
b11000000001000 o
b11000000001000 .
b11000000001000 x
b11000000001000 0
b11000000001000 ~
b11000000001100 C
b11000000001100 &"
b11000000001000 1
b11000000001000 !"
b11000000001000 B
b11000000001000 )"
1!
#32
0!
#33
1/
1O
b1 H
b1 {
04
0N
b1100000100000 J
b1100000100000 t
b11 I
b11 w
b1 &
b1 n
b1 W
b1 \
1]
b11000000010000 9
b11000000010000 ("
b11000000010000 D
b11000000010000 '"
b11000010001100000100000 3
b11000010001100000100000 #"
b11000010001100000100000 <
b1100000100000 *
b1100000100000 s
b1100000100000 2
b1100000100000 ""
b1100000100000 =
b100000 >
b0 :
b11 A
b0 #
b0 Y
b0 8
b0 $"
b0 G
b0 y
b11 ,
b11 u
b11 @
b0 ;
1j
0i
b0 c
b100000 h
b11000010001100000100000 %
b11000010001100000100000 ^
b11000010001100000100000 E
b11000010001100000100000 }
b11000000001100 '
b11000000001100 o
b11000000001100 .
b11000000001100 x
b11000000001100 0
b11000000001100 ~
b11000000010000 C
b11000000010000 &"
b11000000001100 1
b11000000001100 !"
b11000000001100 B
b11000000001100 )"
1!
#34
0!
#35
0/
0O
0%"
14
1N
b1 J
b1 t
b0 I
b0 w
b10 X
b10 [
0]
b11000000010100 9
b11000000010100 ("
b11000000010100 D
b11000000010100 '"
b11 H
b11 {
05
0V
b11000100000000000000001 3
b11000100000000000000001 #"
b11000100000000000000001 <
b1 *
b1 s
b1 2
b1 ""
b1 =
b1 >
b0 A
b10 (
b10 q
b10 F
b10 z
b10 -
b10 v
b10 ?
b100 ;
0j
1i
b100 c
b1 h
b11 &
b11 n
b11 W
b11 \
b10000011000100000000000000001 %
b10000011000100000000000000001 ^
b10000011000100000000000000001 E
b10000011000100000000000000001 }
b1 #
b1 Y
b1 8
b1 $"
b1 G
b1 y
b11000000010000 '
b11000000010000 o
b11000000010000 .
b11000000010000 x
b11000000010000 0
b11000000010000 ~
b11000000010100 C
b11000000010100 &"
b11000000010000 1
b11000000010000 !"
b11000000010000 B
b11000000010000 )"
1!
#36
0!
#37
15
1V
b10 U
b10 m
b10 P
b10 k
1/
1O
b11000000011000 H
b11000000011000 {
04
0N
16
1M
b110000000011 J
b110000000011 t
b11111 I
b11111 w
b0 X
b0 [
b0 &
b0 n
b0 W
b0 \
b11000000001100 9
b11000000001100 ("
b11000000001100 D
b11000000001100 '"
b110000000011 3
b110000000011 #"
b110000000011 <
b110000000011 *
b110000000011 s
b110000000011 2
b110000000011 ""
b110000000011 =
b11 >
b10000 :
b1 A
b0 (
b0 q
b0 F
b0 z
b0 -
b0 v
b0 ?
b0 #
b0 Y
b0 8
b0 $"
b0 G
b0 y
b0 ,
b0 u
b0 @
b11 ;
0i
1g
b11 c
b11 h
b1100000000000000110000000011 %
b1100000000000000110000000011 ^
b1100000000000000110000000011 E
b1100000000000000110000000011 }
b11000000010100 '
b11000000010100 o
b11000000010100 .
b11000000010100 x
b11000000010100 0
b11000000010100 ~
b11000000011000 C
b11000000011000 &"
b11000000010100 1
b11000000010100 !"
b11000000010100 B
b11000000010100 )"
1!
#38
0!
#39
b11 I
b11 w
b0 P
b0 k
1/
1O
b0 U
b0 m
15
1V
06
0M
b11000000010000 9
b11000000010000 ("
b11000000010000 D
b11000000010000 '"
b1100000100000 J
b1100000100000 t
b1 X
b1 [
b10 &
b10 n
b10 W
b10 \
1]
b10 H
b10 {
b11000010001100000100000 3
b11000010001100000100000 #"
b11000010001100000100000 <
b1100000100000 *
b1100000100000 s
b1100000100000 2
b1100000100000 ""
b1100000100000 =
b100000 >
b0 :
b11 A
b1 (
b1 q
b1 F
b1 z
b1 -
b1 v
b1 ?
b1 #
b1 Y
b1 8
b1 $"
b1 G
b1 y
b11 ,
b11 u
b11 @
b0 ;
1j
0g
b0 c
b100000 h
b11000010001100000100000 %
b11000010001100000100000 ^
b11000010001100000100000 E
b11000010001100000100000 }
b11000000001100 '
b11000000001100 o
b11000000001100 .
b11000000001100 x
b11000000001100 0
b11000000001100 ~
b11000000010000 C
b11000000010000 &"
b11000000001100 1
b11000000001100 !"
b11000000001100 B
b11000000001100 )"
1!
#40
0!
#41
0/
0O
1%"
14
1N
b1 J
b1 t
b0 I
b0 w
b10 X
b10 [
0]
b11000000011000 9
b11000000011000 ("
b11000000011000 D
b11000000011000 '"
b11000100000000000000001 3
b11000100000000000000001 #"
b11000100000000000000001 <
b1 *
b1 s
b1 2
b1 ""
b1 =
b1 >
b0 A
b10 (
b10 q
b10 F
b10 z
b10 -
b10 v
b10 ?
b100 ;
0j
1i
b100 c
b1 h
b100 H
b100 {
15
1V
b10000011000100000000000000001 %
b10000011000100000000000000001 ^
b10000011000100000000000000001 E
b10000011000100000000000000001 }
b100 &
b100 n
b100 W
b100 \
b11000000010000 '
b11000000010000 o
b11000000010000 .
b11000000010000 x
b11000000010000 0
b11000000010000 ~
b11000000010100 C
b11000000010100 &"
b11000000010000 1
b11000000010000 !"
b11000000010000 B
b11000000010000 )"
b10 #
b10 Y
b10 8
b10 $"
b10 G
b10 y
1!
#42
0!
#43
b1000 I
b1000 w
b100 $
b100 Z
b100 S
b100 l
1/
1O
0%"
1T
b1 U
b1 m
b10000000000000000 H
b10000000000000000 {
05
0V
04
0N
b1 X
b1 [
b10000000000000000 &
b10000000000000000 n
b10000000000000000 W
b10000000000000000 \
b10000000000000000001 3
b10000000000000000001 #"
b10000000000000000001 <
b0 (
b0 q
b0 F
b0 z
b1000 -
b1000 v
b1000 ?
b0 #
b0 Y
b0 8
b0 $"
b0 G
b0 y
b0 ,
b0 u
b0 @
b1111 ;
0i
1f
b1111 c
b11000000011100 9
b11000000011100 ("
b11000000011100 D
b11000000011100 '"
b111100000010000000000000000001 %
b111100000010000000000000000001 ^
b111100000010000000000000000001 E
b111100000010000000000000000001 }
b11000000011000 '
b11000000011000 o
b11000000011000 .
b11000000011000 x
b11000000011000 0
b11000000011000 ~
b11000000011100 C
b11000000011100 &"
b11000000011000 1
b11000000011000 !"
b11000000011000 B
b11000000011000 )"
1!
#44
0!
#45
b0 H
b0 {
15
1V
b0 &
b0 n
b0 W
b0 \
b0 $
b0 Z
b0 S
b0 l
0/
0O
b0 X
b0 [
0T
b0 U
b0 m
b0 I
b0 w
b0 J
b0 t
b11000000100000 9
b11000000100000 ("
b11000000100000 D
b11000000100000 '"
b0 3
b0 #"
b0 <
b0 *
b0 s
b0 2
b0 ""
b0 =
b0 >
b0 -
b0 v
b0 ?
b0 ;
1j
0f
b0 c
b0 h
1d
b0 %
b0 ^
b0 E
b0 }
b11000000011100 '
b11000000011100 o
b11000000011100 .
b11000000011100 x
b11000000011100 0
b11000000011100 ~
b11000000100000 C
b11000000100000 &"
b11000000011100 1
b11000000011100 !"
b11000000011100 B
b11000000011100 )"
b0 (
b0 q
b0 F
b0 z
1!
#46
0!
#47
x+
xR
x%"
xT
x/
xO
bx U
bx m
x7
xL
bx H
bx {
bx K
bx p
x5
xV
x)
xQ
bx $
bx Z
bx S
bx l
x4
xN
bx P
bx k
x6
xM
bx J
bx t
bx I
bx w
bx X
bx [
bx &
bx n
bx W
bx \
x]
x`
x_
bx 9
bx ("
bx D
bx '"
bx 3
bx #"
bx <
bx *
bx s
bx 2
bx ""
bx =
bx >
bx :
bx A
bx (
bx q
bx F
bx z
bx -
bx v
bx ?
bx #
bx Y
bx 8
bx $"
bx G
bx y
bx ,
bx u
bx @
bx ;
xj
xb
xe
xa
xi
xf
xg
bx c
bx h
xd
bx %
bx ^
bx E
bx }
b11000000100000 '
b11000000100000 o
b11000000100000 .
b11000000100000 x
b11000000100000 0
b11000000100000 ~
b11000000100100 C
b11000000100100 &"
b11000000100000 1
b11000000100000 !"
b11000000100000 B
b11000000100000 )"
1!
#48
0!
#49
bx '
bx o
bx .
bx x
bx 0
bx ~
bx C
bx &"
bx 1
bx !"
bx B
bx )"
1!
