Verilog/10_P4Plus/CPU_Vscode_IMDMLargeScale-2/reference.vcd
$date
	Mon Nov 13 15:29:21 2023
$end
$version
	Icarus Verilog
$end
$timescale
	1s
$end
$scope module tb $end
$var reg 1 ! clk $end
$var reg 1 " reset $end
$scope module myMips $end
$var wire 1 ! clk $end
$var wire 1 " reset $end
$scope module myMipsDatapath $end
$var wire 32 # ALUInput_A [31:0] $end
$var wire 3 $ ALUInput_ALUOp [2:0] $end
$var wire 32 % ControllerInput_ins [31:0] $end
$var wire 32 & DMInput_A [31:0] $end
$var wire 32 ' DMInput_PC [31:0] $end
$var wire 32 ( DMInput_WD [31:0] $end
$var wire 1 ) DMInput_WE $end
$var wire 16 * EXTInput_imm [15:0] $end
$var wire 1 + EXTInput_zeroOrSigned $end
$var wire 5 , GRFInput_A1 [4:0] $end
$var wire 5 - GRFInput_A2 [4:0] $end
$var wire 32 . GRFInput_PC [31:0] $end
$var wire 1 / GRFInput_WE $end
$var wire 32 0 IMInput_PC [31:0] $end
$var wire 32 1 NPCInput_PC [31:0] $end
$var wire 16 2 NPCInput_imm [15:0] $end
$var wire 26 3 NPCInput_ins_index [25:0] $end
$var wire 1 4 NPCInput_isBranch $end
$var wire 1 5 NPCInput_isBranchSuccess $end
$var wire 1 6 NPCInput_isJal $end
$var wire 1 7 NPCInput_isJr $end
$var wire 32 8 NPCInput_rs [31:0] $end
$var wire 32 9 PCInput_NPC [31:0] $end
$var wire 1 ! clk $end
$var wire 1 " reset $end
$var wire 32 : tempFirst [31:0] $end
$var wire 5 ; shamt [4:0] $end
$var wire 6 < op [5:0] $end
$var wire 26 = ins_index [25:0] $end
$var wire 16 > imm [15:0] $end
$var wire 6 ? func [5:0] $end
$var wire 5 @ Rt [4:0] $end
$var wire 5 A Rs [4:0] $end
$var wire 5 B Rd [4:0] $end
$var wire 32 C PCOutput_PC [31:0] $end
$var wire 32 D NPCOutput_PC4 [31:0] $end
$var wire 32 E NPCOutput_NPC [31:0] $end
$var wire 32 F IMOutput_Ins [31:0] $end
$var wire 32 G GRFOutput_RD2 [31:0] $end
$var wire 32 H GRFOutput_RD1 [31:0] $end
$var wire 32 I GRFInput_WD [31:0] $end
$var wire 5 J GRFInput_A3 [4:0] $end
$var wire 32 K EXTOutput_immHasExted [31:0] $end
$var wire 32 L DMOutput_RDConsiderLb [31:0] $end
$var wire 32 M DMOutput_RD [31:0] $end
$var wire 1 N ControllerOutput_islb $end
$var wire 1 O ControllerOutput_isJr_08 $end
$var wire 1 P ControllerOutput_isJal_10 $end
$var wire 1 Q ControllerOutput_isBranch_09 $end
$var wire 1 R ControllerOutput_GRF_WE_02 $end
$var wire 2 S ControllerOutput_GRF_WD_03 [1:0] $end
$var wire 1 T ControllerOutput_DM_WE_07 $end
$var wire 1 U ControllerOutput_ALU_immExt_05 $end
$var wire 3 V ControllerOutput_ALU_Op_06 [2:0] $end
$var wire 1 W ControllerOutput_ALU_B_04 $end
$var wire 2 X ControllerOutput_A3_RdRtRa_01 [1:0] $end
$var wire 1 Y ALUOutput_isEqual $end
$var wire 32 Z ALUOutput_C [31:0] $end
$var wire 32 [ ALUInput_B [31:0] $end
$scope module myALU $end
$var wire 32 \ A [31:0] $end
$var wire 3 ] ALUOp [2:0] $end
$var wire 32 ^ B [31:0] $end
$var wire 1 Y isEqual $end
$var wire 32 _ C [31:0] $end
$upscope $end
$scope module myController $end
$var wire 1 ` add $end
$var wire 32 a ins [31:0] $end
$var wire 1 b jr $end
$var wire 1 c sub $end
$var wire 1 d sw $end
$var wire 1 e ori $end
$var wire 6 f op [5:0] $end
$var wire 1 g nop $end
$var wire 1 h lw $end
$var wire 1 i lui $end
$var wire 1 j lb $end
$var wire 1 k jal $end
$var wire 1 N islb $end
$var wire 1 O isJr_08 $end
$var wire 1 P isJal_10 $end
$var wire 1 Q isBranch_09 $end
$var wire 6 l func [5:0] $end
$var wire 1 m beq $end
$var wire 1 n R $end
$var wire 1 R GRF_WE_02 $end
$var wire 2 o GRF_WD_03 [1:0] $end
$var wire 1 T DM_WE_07 $end
$var wire 1 U ALU_immExt_05 $end
$var wire 3 p ALU_Op_06 [2:0] $end
$var wire 1 W ALU_B_04 $end
$var wire 2 q A3_RdRtRa_01 [1:0] $end
$upscope $end
$scope module myDM $end
$var wire 32 r A [31:0] $end
$var wire 32 s PC [31:0] $end
$var wire 32 t RD [31:0] $end
$var wire 32 u WD [31:0] $end
$var wire 1 ) WE $end
$var wire 1 ! clk $end
$var wire 1 " reset $end
$var integer 32 v i [31:0] $end
$upscope $end
$scope module myEXT $end
$var wire 16 w imm [15:0] $end
$var wire 1 + zeroOrSigned $end
$var wire 32 x immHasExted [31:0] $end
$upscope $end
$scope module myGRF $end
$var wire 5 y A1 [4:0] $end
$var wire 5 z A2 [4:0] $end
$var wire 5 { A3 [4:0] $end
$var wire 32 | PC [31:0] $end
$var wire 32 } RD1 [31:0] $end
$var wire 32 ~ RD2 [31:0] $end
$var wire 32 !" WD [31:0] $end
$var wire 1 / WE $end
$var wire 1 ! clk $end
$var wire 1 " reset $end
$var integer 32 "" i [31:0] $end
$upscope $end
$scope module myIM $end
$var wire 32 #" Ins [31:0] $end
$var wire 32 $" PC [31:0] $end
$var wire 32 %" tempPC [31:0] $end
$upscope $end
$scope module myNPC $end
$var wire 32 &" PC [31:0] $end
$var wire 16 '" imm [15:0] $end
$var wire 26 (" ins_index [25:0] $end
$var wire 1 4 isBranch $end
$var wire 1 5 isBranchSuccess $end
$var wire 1 6 isJal $end
$var wire 1 7 isJr $end
$var wire 32 )" rs [31:0] $end
$var wire 1 *" tempBranch $end
$var wire 32 +" PC4 [31:0] $end
$var wire 32 ," NPC [31:0] $end
$upscope $end
$scope module myPC $end
$var wire 32 -" NPC [31:0] $end
$var wire 1 ! clk $end
$var wire 1 " reset $end
$var reg 32 ." PC [31:0] $end
$upscope $end
$upscope $end
$upscope $end
$upscope $end
$enddefinitions $end
#0
$dumpvars
b11000000000000 ."
b11000000000100 -"
b11000000000100 ,"
b11000000000100 +"
0*"
b0 )"
b11000011101100101 ("
b1000011101100101 '"
b11000000000000 &"
b0 %"
b11000000000000 $"
b111100000000011000011101100101 #"
b100000 ""
b10000111011001010000000000000000 !"
b0 ~
b0 }
b11000000000000 |
b1 {
b1 z
b0 y
b1000011101100101 x
b1000011101100101 w
b10000000000 v
b0 u
b0 t
b11000000000000 s
b10000111011001010000000000000000 r
b1 q
b100 p
b0 o
0n
0m
b100101 l
0k
0j
1i
0h
0g
b1111 f
0e
0d
0c
0b
b111100000000011000011101100101 a
0`
b10000111011001010000000000000000 _
b1000011101100101 ^
b100 ]
b0 \
b1000011101100101 [
b10000111011001010000000000000000 Z
0Y
b1 X
1W
b100 V
0U
0T
b0 S
1R
0Q
0P
0O
0N
b0 M
b0 L
b1000011101100101 K
b1 J
b10000111011001010000000000000000 I
b0 H
b0 G
b111100000000011000011101100101 F
b11000000000100 E
b11000000000100 D
b11000000000000 C
b10000 B
b0 A
b1 @
b100101 ?
b1000011101100101 >
b11000011101100101 =
b1111 <
b11101 ;
b0 :
b11000000000100 9
b0 8
07
06
05
04
b11000011101100101 3
b1000011101100101 2
b11000000000000 1
b11000000000000 0
1/
b11000000000000 .
b1 -
b0 ,
0+
b1000011101100101 *
0)
b0 (
b11000000000000 '
b10000111011001010000000000000000 &
b111100000000011000011101100101 %
b100 $
b0 #
0"
0!
$end
#1
05
0Y
b10000111011001010100001100100001 I
b10000111011001010100001100100001 !"
b10000111011001010100001100100001 &
b10000111011001010100001100100001 r
b10000111011001010100001100100001 Z
b10000111011001010100001100100001 _
1/
1R
b1 J
b1 {
1W
b1 X
b1 q
b100001100100001 [
b100001100100001 ^
b11 $
b11 ]
b11 V
b11 p
b100001100100001 K
b100001100100001 x
b11000000001000 9
b11000000001000 -"
b11000000001000 E
b11000000001000 ,"
b1000010100001100100001 3
b1000010100001100100001 ("
b1000010100001100100001 =
b100001100100001 *
b100001100100001 w
b100001100100001 2
b100001100100001 '"
b100001100100001 >
b100001 ?
b1100 ;
b1000 B
b10000111011001010000000000000000 #
b10000111011001010000000000000000 \
b10000111011001010000000000000000 8
b10000111011001010000000000000000 )"
b10000111011001010000000000000000 H
b10000111011001010000000000000000 }
b1 ,
b1 y
b1 A
b1101 <
1e
0i
b1101 f
b100001 l
b110100001000010100001100100001 %
b110100001000010100001100100001 a
b110100001000010100001100100001 F
b110100001000010100001100100001 #"
b11000000000100 '
b11000000000100 s
b11000000000100 .
b11000000000100 |
b100 %"
b11000000000100 0
b11000000000100 $"
b11000000001000 D
b11000000001000 +"
b11000000000100 1
b11000000000100 &"
b11000000000100 C
b11000000000100 ."
b10000111011001010000000000000000 (
b10000111011001010000000000000000 u
b10000111011001010000000000000000 G
b10000111011001010000000000000000 ~
1!
#2
0!
#3
0/
0R
b0 J
b0 {
15
1Y
b0 X
b0 q
b0 I
b0 !"
1+
1U
b0 [
b0 ^
b0 &
b0 r
b0 Z
b0 _
1)
1T
b0 $
b0 ]
b0 V
b0 p
b0 K
b0 x
b11000000001100 9
b11000000001100 -"
b11000000001100 E
b11000000001100 ,"
b10000000000000000 3
b10000000000000000 ("
b10000000000000000 =
b0 *
b0 w
b0 2
b0 '"
b0 >
b0 ?
b0 ;
b0 B
b0 ,
b0 y
b0 A
b101011 <
0e
1d
b101011 f
b0 l
b10101100000000010000000000000000 %
b10101100000000010000000000000000 a
b10101100000000010000000000000000 F
b10101100000000010000000000000000 #"
b0 #
b0 \
b0 8
b0 )"
b0 H
b0 }
b10000111011001010100001100100001 (
b10000111011001010100001100100001 u
b10000111011001010100001100100001 G
b10000111011001010100001100100001 ~
b11000000001000 '
b11000000001000 s
b11000000001000 .
b11000000001000 |
b1000 %"
b11000000001000 0
b11000000001000 $"
b11000000001100 D
b11000000001100 +"
b11000000001000 1
b11000000001000 &"
b11000000001000 C
b11000000001000 ."
1!
#4
0!
#5
b100001 I
b100001 !"
b10 J
b10 {
b1 S
b1 o
1/
1R
b1 X
b1 q
0)
0T
1N
b11000000010000 9
b11000000010000 -"
b11000000010000 E
b11000000010000 ,"
b100000000000000000 3
b100000000000000000 ("
b100000000000000000 =
b0 (
b0 u
b0 G
b0 ~
b10 -
b10 z
b10 @
b100000 <
0d
1j
b100000 f
b100001 :
b10000000000000100000000000000000 %
b10000000000000100000000000000000 a
b10000000000000100000000000000000 F
b10000000000000100000000000000000 #"
b100001 L
b11000000001100 '
b11000000001100 s
b11000000001100 .
b11000000001100 |
b1100 %"
b11000000001100 0
b11000000001100 $"
b11000000010000 D
b11000000010000 +"
b11000000001100 1
b11000000001100 &"
b11000000001100 C
b11000000001100 ."
b10000111011001010100001100100001 M
b10000111011001010100001100100001 t
1!
#6
0!
#7
b1000011 I
b1000011 !"
b1000011 L
b1000011 :
05
0Y
b1 &
b1 r
b1 Z
b1 _
b1 [
b1 ^
b11 J
b11 {
b1 K
b1 x
b11000000010100 9
b11000000010100 -"
b11000000010100 E
b11000000010100 ,"
b110000000000000001 3
b110000000000000001 ("
b110000000000000001 =
b1 *
b1 w
b1 2
b1 '"
b1 >
b1 ?
b11 -
b11 z
b11 @
b1 l
b10000000000000110000000000000001 %
b10000000000000110000000000000001 a
b10000000000000110000000000000001 F
b10000000000000110000000000000001 #"
b0 (
b0 u
b0 G
b0 ~
b11000000010000 '
b11000000010000 s
b11000000010000 .
b11000000010000 |
b10000 %"
b11000000010000 0
b11000000010000 $"
b11000000010100 D
b11000000010100 +"
b11000000010000 1
b11000000010000 &"
b11000000010000 C
b11000000010000 ."
1!
#8
0!
#9
b1100101 I
b1100101 !"
b1100101 L
b1100101 :
b10 &
b10 r
b10 Z
b10 _
b10 [
b10 ^
b100 J
b100 {
b10 K
b10 x
b11000000011000 9
b11000000011000 -"
b11000000011000 E
b11000000011000 ,"
b1000000000000000010 3
b1000000000000000010 ("
b1000000000000000010 =
b10 *
b10 w
b10 2
b10 '"
b10 >
b10 ?
b100 -
b100 z
b100 @
b10 l
b10000000000001000000000000000010 %
b10000000000001000000000000000010 a
b10000000000001000000000000000010 F
b10000000000001000000000000000010 #"
b11000000010100 '
b11000000010100 s
b11000000010100 .
b11000000010100 |
b10100 %"
b11000000010100 0
b11000000010100 $"
b11000000011000 D
b11000000011000 +"
b11000000010100 1
b11000000010100 &"
b11000000010100 C
b11000000010100 ."
b0 (
b0 u
b0 G
b0 ~
1!
#10
0!
#11
b11111111111111111111111110000111 I
b11111111111111111111111110000111 !"
b11111111111111111111111110000111 L
b11111111111111111111111110000111 :
b11 &
b11 r
b11 Z
b11 _
b11 [
b11 ^
b101 J
b101 {
b11 K
b11 x
b11000000011100 9
b11000000011100 -"
b11000000011100 E
b11000000011100 ,"
b1010000000000000011 3
b1010000000000000011 ("
b1010000000000000011 =
b11 *
b11 w
b11 2
b11 '"
b11 >
b11 ?
b101 -
b101 z
b101 @
b11 l
b10000000000001010000000000000011 %
b10000000000001010000000000000011 a
b10000000000001010000000000000011 F
b10000000000001010000000000000011 #"
b0 (
b0 u
b0 G
b0 ~
b11000000011000 '
b11000000011000 s
b11000000011000 .
b11000000011000 |
b11000 %"
b11000000011000 0
b11000000011000 $"
b11000000011100 D
b11000000011100 +"
b11000000011000 1
b11000000011000 &"
b11000000011000 C
b11000000011000 ."
1!
#12
0!
#13
bx [
bx ^
bx :
x*"
bx I
bx !"
bx L
x+
xU
xW
x/
xR
bx X
bx q
x7
xO
bx J
bx {
bx M
bx t
x5
xY
x)
xT
bx $
bx ]
bx V
bx p
x4
xQ
bx S
bx o
xN
x6
xP
bx K
bx x
bx &
bx r
bx Z
bx _
x`
xc
xb
bx 9
bx -"
bx E
bx ,"
bx 3
bx ("
bx =
bx *
bx w
bx 2
bx '"
bx >
bx ?
bx ;
bx B
bx -
bx z
bx @
bx #
bx \
bx 8
bx )"
bx H
bx }
bx ,
bx y
bx A
bx <
xn
xe
xh
xd
xm
xi
xj
xk
bx f
bx l
xg
bx %
bx a
bx F
bx #"
b11000000011100 '
b11000000011100 s
b11000000011100 .
b11000000011100 |
b11100 %"
b11000000011100 0
b11000000011100 $"
b11000000100000 D
b11000000100000 +"
b11000000011100 1
b11000000011100 &"
b11000000011100 C
b11000000011100 ."
bx (
bx u
bx G
bx ~
1!
#14
0!
#15
bx '
bx s
bx .
bx |
bx %"
bx 0
bx $"
bx D
bx +"
bx 1
bx &"
bx C
bx ."
1!
#16
0!
#17
1!
#18
0!
#19
1!
#20
0!
#21
1!
#22
0!
1"
#23
05
0Y
b0 :
b0 L
1/
1R
b1 J
b1 {
b10000111011001010000000000000000 I
b10000111011001010000000000000000 !"
b0 M
b0 t
0+
0U
1W
b10000111011001010000000000000000 &
b10000111011001010000000000000000 r
b10000111011001010000000000000000 Z
b10000111011001010000000000000000 _
b1000011101100101 [
b1000011101100101 ^
0*"
b11000000000100 9
b11000000000100 -"
b11000000000100 E
b11000000000100 ,"
b1 X
b1 q
b100 $
b100 ]
b100 V
b100 p
07
0O
0)
0T
04
0Q
b0 S
b0 o
0N
06
0P
b1000011101100101 K
b1000011101100101 x
0`
0c
0b
b11000011101100101 3
b11000011101100101 ("
b11000011101100101 =
b1000011101100101 *
b1000011101100101 w
b1000011101100101 2
b1000011101100101 '"
b1000011101100101 >
b100101 ?
b11101 ;
b10000 B
b0 (
b0 u
b0 G
b0 ~
b1 -
b1 z
b1 @
b0 #
b0 \
b0 8
b0 )"
b0 H
b0 }
b0 ,
b0 y
b0 A
b1111 <
0n
0e
0h
0d
0m
1i
0j
0k
b1111 f
b100101 l
0g
b111100000000011000011101100101 %
b111100000000011000011101100101 a
b111100000000011000011101100101 F
b111100000000011000011101100101 #"
b11000000000000 '
b11000000000000 s
b11000000000000 .
b11000000000000 |
b0 %"
b11000000000000 0
b11000000000000 $"
b11000000000100 D
b11000000000100 +"
b11000000000000 1
b11000000000000 &"
b11000000000000 C
b11000000000000 ."
b10000000000 v
b100000 ""
1!
#24
0!
0"
#25
05
0Y
b10000111011001010100001100100001 I
b10000111011001010100001100100001 !"
b10000111011001010100001100100001 &
b10000111011001010100001100100001 r
b10000111011001010100001100100001 Z
b10000111011001010100001100100001 _
1/
1R
b1 J
b1 {
1W
b1 X
b1 q
b100001100100001 [
b100001100100001 ^
b11 $
b11 ]
b11 V
b11 p
b100001100100001 K
b100001100100001 x
b11000000001000 9
b11000000001000 -"
b11000000001000 E
b11000000001000 ,"
b1000010100001100100001 3
b1000010100001100100001 ("
b1000010100001100100001 =
b100001100100001 *
b100001100100001 w
b100001100100001 2
b100001100100001 '"
b100001100100001 >
b100001 ?
b1100 ;
b1000 B
b10000111011001010000000000000000 #
b10000111011001010000000000000000 \
b10000111011001010000000000000000 8
b10000111011001010000000000000000 )"
b10000111011001010000000000000000 H
b10000111011001010000000000000000 }
b1 ,
b1 y
b1 A
b1101 <
1e
0i
b1101 f
b100001 l
b110100001000010100001100100001 %
b110100001000010100001100100001 a
b110100001000010100001100100001 F
b110100001000010100001100100001 #"
b11000000000100 '
b11000000000100 s
b11000000000100 .
b11000000000100 |
b100 %"
b11000000000100 0
b11000000000100 $"
b11000000001000 D
b11000000001000 +"
b11000000000100 1
b11000000000100 &"
b11000000000100 C
b11000000000100 ."
b10000111011001010000000000000000 (
b10000111011001010000000000000000 u
b10000111011001010000000000000000 G
b10000111011001010000000000000000 ~
1!
#26
0!
#27
0/
0R
b0 J
b0 {
15
1Y
b0 X
b0 q
b0 I
b0 !"
1+
1U
b0 [
b0 ^
b0 &
b0 r
b0 Z
b0 _
1)
1T
b0 $
b0 ]
b0 V
b0 p
b0 K
b0 x
b11000000001100 9
b11000000001100 -"
b11000000001100 E
b11000000001100 ,"
b10000000000000000 3
b10000000000000000 ("
b10000000000000000 =
b0 *
b0 w
b0 2
b0 '"
b0 >
b0 ?
b0 ;
b0 B
b0 ,
b0 y
b0 A
b101011 <
0e
1d
b101011 f
b0 l
b10101100000000010000000000000000 %
b10101100000000010000000000000000 a
b10101100000000010000000000000000 F
b10101100000000010000000000000000 #"
b0 #
b0 \
b0 8
b0 )"
b0 H
b0 }
b10000111011001010100001100100001 (
b10000111011001010100001100100001 u
b10000111011001010100001100100001 G
b10000111011001010100001100100001 ~
b11000000001000 '
b11000000001000 s
b11000000001000 .
b11000000001000 |
b1000 %"
b11000000001000 0
b11000000001000 $"
b11000000001100 D
b11000000001100 +"
b11000000001000 1
b11000000001000 &"
b11000000001000 C
b11000000001000 ."
1!
#28
0!
#29
b100001 I
b100001 !"
b10 J
b10 {
b1 S
b1 o
1/
1R
b1 X
b1 q
0)
0T
1N
b11000000010000 9
b11000000010000 -"
b11000000010000 E
b11000000010000 ,"
b100000000000000000 3
b100000000000000000 ("
b100000000000000000 =
b0 (
b0 u
b0 G
b0 ~
b10 -
b10 z
b10 @
b100000 <
0d
1j
b100000 f
b100001 :
b10000000000000100000000000000000 %
b10000000000000100000000000000000 a
b10000000000000100000000000000000 F
b10000000000000100000000000000000 #"
b100001 L
b11000000001100 '
b11000000001100 s
b11000000001100 .
b11000000001100 |
b1100 %"
b11000000001100 0
b11000000001100 $"
b11000000010000 D
b11000000010000 +"
b11000000001100 1
b11000000001100 &"
b11000000001100 C
b11000000001100 ."
b10000111011001010100001100100001 M
b10000111011001010100001100100001 t
1!
#30
0!
#31
b1000011 I
b1000011 !"
b1000011 L
b1000011 :
05
0Y
b1 &
b1 r
b1 Z
b1 _
b1 [
b1 ^
b11 J
b11 {
b1 K
b1 x
b11000000010100 9
b11000000010100 -"
b11000000010100 E
b11000000010100 ,"
b110000000000000001 3
b110000000000000001 ("
b110000000000000001 =
b1 *
b1 w
b1 2
b1 '"
b1 >
b1 ?
b11 -
b11 z
b11 @
b1 l
b10000000000000110000000000000001 %
b10000000000000110000000000000001 a
b10000000000000110000000000000001 F
b10000000000000110000000000000001 #"
b0 (
b0 u
b0 G
b0 ~
b11000000010000 '
b11000000010000 s
b11000000010000 .
b11000000010000 |
b10000 %"
b11000000010000 0
b11000000010000 $"
b11000000010100 D
b11000000010100 +"
b11000000010000 1
b11000000010000 &"
b11000000010000 C
b11000000010000 ."
1!
#32
0!
#33
b1100101 I
b1100101 !"
b1100101 L
b1100101 :
b10 &
b10 r
b10 Z
b10 _
b10 [
b10 ^
b100 J
b100 {
b10 K
b10 x
b11000000011000 9
b11000000011000 -"
b11000000011000 E
b11000000011000 ,"
b1000000000000000010 3
b1000000000000000010 ("
b1000000000000000010 =
b10 *
b10 w
b10 2
b10 '"
b10 >
b10 ?
b100 -
b100 z
b100 @
b10 l
b10000000000001000000000000000010 %
b10000000000001000000000000000010 a
b10000000000001000000000000000010 F
b10000000000001000000000000000010 #"
b11000000010100 '
b11000000010100 s
b11000000010100 .
b11000000010100 |
b10100 %"
b11000000010100 0
b11000000010100 $"
b11000000011000 D
b11000000011000 +"
b11000000010100 1
b11000000010100 &"
b11000000010100 C
b11000000010100 ."
b0 (
b0 u
b0 G
b0 ~
1!
#34
0!
#35
b11111111111111111111111110000111 I
b11111111111111111111111110000111 !"
b11111111111111111111111110000111 L
b11111111111111111111111110000111 :
b11 &
b11 r
b11 Z
b11 _
b11 [
b11 ^
b101 J
b101 {
b11 K
b11 x
b11000000011100 9
b11000000011100 -"
b11000000011100 E
b11000000011100 ,"
b1010000000000000011 3
b1010000000000000011 ("
b1010000000000000011 =
b11 *
b11 w
b11 2
b11 '"
b11 >
b11 ?
b101 -
b101 z
b101 @
b11 l
b10000000000001010000000000000011 %
b10000000000001010000000000000011 a
b10000000000001010000000000000011 F
b10000000000001010000000000000011 #"
b0 (
b0 u
b0 G
b0 ~
b11000000011000 '
b11000000011000 s
b11000000011000 .
b11000000011000 |
b11000 %"
b11000000011000 0
b11000000011000 $"
b11000000011100 D
b11000000011100 +"
b11000000011000 1
b11000000011000 &"
b11000000011000 C
b11000000011000 ."
1!
#36
0!
#37
bx [
bx ^
bx :
x*"
bx I
bx !"
bx L
x+
xU
xW
x/
xR
bx X
bx q
x7
xO
bx J
bx {
bx M
bx t
x5
xY
x)
xT
bx $
bx ]
bx V
bx p
x4
xQ
bx S
bx o
xN
x6
xP
bx K
bx x
bx &
bx r
bx Z
bx _
x`
xc
xb
bx 9
bx -"
bx E
bx ,"
bx 3
bx ("
bx =
bx *
bx w
bx 2
bx '"
bx >
bx ?
bx ;
bx B
bx -
bx z
bx @
bx #
bx \
bx 8
bx )"
bx H
bx }
bx ,
bx y
bx A
bx <
xn
xe
xh
xd
xm
xi
xj
xk
bx f
bx l
xg
bx %
bx a
bx F
bx #"
b11000000011100 '
b11000000011100 s
b11000000011100 .
b11000000011100 |
b11100 %"
b11000000011100 0
b11000000011100 $"
b11000000100000 D
b11000000100000 +"
b11000000011100 1
b11000000011100 &"
b11000000011100 C
b11000000011100 ."
bx (
bx u
bx G
bx ~
1!
#38
0!
#39
bx '
bx s
bx .
bx |
bx %"
bx 0
bx $"
bx D
bx +"
bx 1
bx &"
bx C
bx ."
1!
